You are requested to attend following meeting:

Subject: dfghjk

Schedule: 04 April 2013 15:38

Ticket: 
<E><A KH="QwHevKKojvutF7J1sZTYQMgkjpg=" ID="WinPresenter"/><C><T ID="1" SID="0"><L P="8095" N="fe80::b42b:f3c0:cf32:b8b7%24"/><L P="8096" N="fe80::543c:9774:4e9b:ca3e%25"/><L P="8097" N="fe80::bd6c:d3e7:ab66:462e%12"/><L P="8098" N="192.168.43.2"/><L P="8099" N="192.168.190.1"/><L P="8100" N="192.168.110.1"/></T></C></E>


Admin Server Host Name: Aaswad
