^D:\MAIN\DOTNET\WINPRESENTER\FACE-D\DEBUG\AICLASSIFIER.OBJ|D:\MAIN\DOTNET\WINPRESENTER\FACE-D\DEBUG\ANNETWORK.OBJ|D:\MAIN\DOTNET\WINPRESENTER\FACE-D\DEBUG\ANNLAYER.OBJ|D:\MAIN\DOTNET\WINPRESENTER\FACE-D\DEBUG\BASEFWT.OBJ|D:\MAIN\DOTNET\WINPRESENTER\FACE-D\DEBUG\CAPTURE.OBJ|D:\MAIN\DOTNET\WINPRESENTER\FACE-D\DEBUG\CVLIB.OBJ|D:\MAIN\DOTNET\WINPRESENTER\FACE-D\DEBUG\FACEDETECTOR.OBJ|D:\MAIN\DOTNET\WINPRESENTER\FACE-D\DEBUG\HAAR.OBJ|D:\MAIN\DOTNET\WINPRESENTER\FACE-D\DEBUG\IMAGEFRAME.OBJ|D:\MAIN\DOTNET\WINPRESENTER\FACE-D\DEBUG\IMAGEPYRAMID.OBJ|D:\MAIN\DOTNET\WINPRESENTER\FACE-D\DEBUG\IMAGERESIZE.OBJ|D:\MAIN\DOTNET\WINPRESENTER\FACE-D\DEBUG\MOTIONDETECTOR.OBJ|D:\MAIN\DOTNET\WINPRESENTER\FACE-D\DEBUG\SAMPLEGRAB.OBJ|D:\MAIN\DOTNET\WINPRESENTER\FACE-D\DEBUG\STDAFX.OBJ|D:\MAIN\DOTNET\WINPRESENTER\FACE-D\DEBUG\SVM.OBJ|D:\MAIN\DOTNET\WINPRESENTER\FACE-D\DEBUG\VEC1D.OBJ|D:\MAIN\DOTNET\WINPRESENTER\FACE-D\DEBUG\VEC2D.OBJ|D:\MAIN\DOTNET\WINPRESENTER\FACE-D\DEBUG\VEC2DC.OBJ|D:\MAIN\DOTNET\WINPRESENTER\FACE-D\DEBUG\VIDCAP.EXE.EMBED.MANIFEST.RES|D:\MAIN\DOTNET\WINPRESENTER\FACE-D\DEBUG\VIDCAP.OBJ|D:\MAIN\DOTNET\WINPRESENTER\FACE-D\DEBUG\VIDCAP.RES|D:\MAIN\DOTNET\WINPRESENTER\FACE-D\DEBUG\VIDCAPDLG.OBJ
D:\MAIN\DOTNET\WINPRESENTER\FACE-D\DEBUG\VIDCAP.ILK
D:\MAIN\DOTNET\WINPRESENTER\FACE-D\DEBUG\VIDCAP.EXE
D:\MAIN\DOTNET\WINPRESENTER\FACE-D\DEBUG\VIDCAP.EXE.INTERMEDIATE.MANIFEST
D:\MAIN\DOTNET\WINPRESENTER\FACE-D\DEBUG\VIDCAP.PDB
^D:\MAIN\DOTNET\PRESENTION\FACE-D\DEBUG\AICLASSIFIER.OBJ|D:\MAIN\DOTNET\PRESENTION\FACE-D\DEBUG\ANNETWORK.OBJ|D:\MAIN\DOTNET\PRESENTION\FACE-D\DEBUG\ANNLAYER.OBJ|D:\MAIN\DOTNET\PRESENTION\FACE-D\DEBUG\BASEFWT.OBJ|D:\MAIN\DOTNET\PRESENTION\FACE-D\DEBUG\CAPTURE.OBJ|D:\MAIN\DOTNET\PRESENTION\FACE-D\DEBUG\CVLIB.OBJ|D:\MAIN\DOTNET\PRESENTION\FACE-D\DEBUG\FACEDETECTOR.OBJ|D:\MAIN\DOTNET\PRESENTION\FACE-D\DEBUG\HAAR.OBJ|D:\MAIN\DOTNET\PRESENTION\FACE-D\DEBUG\IMAGEFRAME.OBJ|D:\MAIN\DOTNET\PRESENTION\FACE-D\DEBUG\IMAGEPYRAMID.OBJ|D:\MAIN\DOTNET\PRESENTION\FACE-D\DEBUG\IMAGERESIZE.OBJ|D:\MAIN\DOTNET\PRESENTION\FACE-D\DEBUG\MOTIONDETECTOR.OBJ|D:\MAIN\DOTNET\PRESENTION\FACE-D\DEBUG\SAMPLEGRAB.OBJ|D:\MAIN\DOTNET\PRESENTION\FACE-D\DEBUG\STDAFX.OBJ|D:\MAIN\DOTNET\PRESENTION\FACE-D\DEBUG\SVM.OBJ|D:\MAIN\DOTNET\PRESENTION\FACE-D\DEBUG\VEC1D.OBJ|D:\MAIN\DOTNET\PRESENTION\FACE-D\DEBUG\VEC2D.OBJ|D:\MAIN\DOTNET\PRESENTION\FACE-D\DEBUG\VEC2DC.OBJ|D:\MAIN\DOTNET\PRESENTION\FACE-D\DEBUG\VIDCAP.EXE.EMBED.MANIFEST.RES|D:\MAIN\DOTNET\PRESENTION\FACE-D\DEBUG\VIDCAP.OBJ|D:\MAIN\DOTNET\PRESENTION\FACE-D\DEBUG\VIDCAP.RES|D:\MAIN\DOTNET\PRESENTION\FACE-D\DEBUG\VIDCAPDLG.OBJ
D:\MAIN\DOTNET\PRESENTION\DEBUG\VIDCAP.ILK
D:\MAIN\DOTNET\PRESENTION\DEBUG\VIDCAP.EXE
D:\MAIN\DOTNET\PRESENTION\FACE-D\DEBUG\VIDCAP.EXE.INTERMEDIATE.MANIFEST
D:\MAIN\DOTNET\PRESENTION\DEBUG\VIDCAP.PDB
